animation{
  name = "normal",
  src_image = "darkness/entities/cave/cave_darkness.png",
  directions = {
    { x = 16, y = 0, frame_width = 16, frame_height = 16, origin_x = 8, origin_y = 13 },
  },
}
